{
    "numrows": 3,
    "numcols": 3,
    "tiles":
        [
            {
                "id": "1",
                "filename": "art/end.png",
                "directions": [[1,0,-1], [-1,0,-1], [0,1,-1], [0,-1,-1]]
            },
            {
                "id": "2",
                "filename": "art/flat.png",
                "directions": [[1,0,0], [-1,0,0], [0,1,0], [0,-1,0],
                               [1,0,1], [-1,0,1], [0,1,1], [0,-1,1]]
            },
            {
                "id": "3",
                "filename": "art/ne.png",
                "directions": [[1,0,-1], [-1,0,0]]
            },
            {
                "id": "4",
                "filename": "art/nw.png",
                "directions": [[0,1,-1], [0,-1,0]]
            },
            {
                "id": "5",
                "filename": "art/se.png",
                "directions": [[0,-1,-1], [0,1,0]]
            },
            {
                "id": "6",
                "filename": "art/start.png",
                "directions": [[1,0,-1], [-1,0,-1], [0,1,-1], [0,-1,-1]]
            },
            {
                "id": "7",
                "filename": "art/sw.png",
                "directions": [[-1,0,-1], [1,0,0]]
            }
        ],
    "tilewidth": 256,
    "layeryoffset": -78,
    "layers":
        [
            {
                "data": [2, 2, 2,
                         2, 2, 2,
                         2, 2, 2]
            },
            {
                "data": [6, 2, 0,
                         0, 3, 0,
                         0, 0, 1]
            }
        ]
}
